bin/build/fifo_buffer.vcd
$date
     Nov 10, 2025       01:20:13
$end

$version
 SystemC 3.0.1-Accellera --- Oct 26 2025 11:54:45
$end

$timescale
     1 ns
$end

$scope module SystemC $end
$scope module fifo_inst $end
$var wire   16  aaaaa  fifo_cnt [15:0]  $end
$var wire    1  aaaab  fifo_empty       $end
$var wire    1  aaaac  fifo_full       $end
$var wire    1  aaaae  slv_rdy       $end
$var wire    1  aaaaf  slv_vld       $end
$var wire    1  aaaah  mst_rdy       $end
$var wire    1  aaaai  mst_vld       $end
$var wire    1  aaaaj  rst_n       $end
$var wire    1  aaaak  clk       $end
$scope module mst_payload $end
$var wire   32  aaaag  data [31:0]  $end
$upscope $end
$scope module slv_payload $end
$var wire   32  aaaad  data [31:0]  $end
$upscope $end
$upscope $end
$upscope $end
$enddefinitions  $end

$comment
All initial values are dumped below at time 0 sec = 0 timescale units.
$end

$dumpvars
b0 aaaaa
1aaaab
0aaaac
b0 aaaad
0aaaae
0aaaaf
b0 aaaag
1aaaah
0aaaai
0aaaaj
1aaaak
$end

#5
0aaaak

#10
1aaaae
1aaaak

#15
0aaaak

#20
1aaaak

#25
0aaaak

#30
0aaaae
1aaaak

#35
0aaaak

#40
1aaaak

#45
0aaaak

#50
1aaaae
b10101111 aaaag
1aaaai
1aaaaj
1aaaak

#55
0aaaak

#60
b1 aaaaa
0aaaab
b10101111 aaaad
0aaaae
1aaaaf
b1000110 aaaag
1aaaak

#65
0aaaak

#70
b10 aaaaa
1aaaac
1aaaae
b11011011 aaaag
0aaaah
1aaaak

#75
0aaaak

#80
b1 aaaaa
0aaaac
b1000110 aaaad
0aaaae
1aaaah
1aaaak

#85
0aaaak

#90
b10 aaaaa
1aaaac
1aaaae
b1011101 aaaag
0aaaah
1aaaak

#95
0aaaak

#100
b1 aaaaa
0aaaac
b11011011 aaaad
1aaaah
1aaaak

#105
0aaaak

#110
b1011101 aaaad
0aaaae
0aaaai
1aaaak

#115
0aaaak

#120
1aaaae
b10010110 aaaag
1aaaai
1aaaak

#125
0aaaak

#130
b10010110 aaaad
0aaaai
1aaaak

#135
0aaaak

#140
b0 aaaaa
1aaaab
0aaaaf
b10000110 aaaag
1aaaai
1aaaak

#145
0aaaak

#150
b1 aaaaa
0aaaab
b10000110 aaaad
1aaaaf
b10110011 aaaag
1aaaak

#155
0aaaak

#160
b10110011 aaaad
0aaaai
1aaaak

#165
0aaaak

#170
b0 aaaaa
1aaaab
0aaaaf
b110010 aaaag
1aaaai
1aaaak

#175
0aaaak

#180
b1 aaaaa
0aaaab
b110010 aaaad
0aaaae
1aaaaf
0aaaai
1aaaak

#185
0aaaak

#190
1aaaae
b101111 aaaag
1aaaai
1aaaak

#195
0aaaak

#200
b101111 aaaad
b1010 aaaag
1aaaak

#205
0aaaak

#210
b1010 aaaad
0aaaai
1aaaak

#215
0aaaak

#220
b0 aaaaa
1aaaab
0aaaaf
1aaaak

#225
0aaaak

#230
1aaaak

#235
0aaaak

#240
1aaaak

#245
0aaaak

#250
0aaaae
1aaaak

#255
0aaaak

#260
1aaaak

#265
0aaaak

#270
1aaaae
1aaaak

#275
0aaaak

#280
1aaaak

#285
0aaaak

#290
1aaaak

#295
0aaaak

#300
1aaaak

#305
0aaaak

#310
0aaaae
1aaaak

#315
0aaaak

#320
1aaaae
1aaaak

#325
0aaaak

#330
1aaaak

#335
0aaaak

#340
1aaaak

#345
0aaaak

#350
0aaaae
1aaaak

#355
0aaaak

#360
1aaaae
1aaaak

#365
0aaaak

#370
1aaaak

#375
0aaaak

#380
1aaaak

#385
0aaaak

#390
1aaaak

#395
0aaaak

#400
1aaaak

#405
0aaaak

#410
1aaaak

#415
0aaaak

#420
1aaaak

#425
0aaaak

#430
1aaaak

#435
0aaaak

#440
1aaaak

#445
0aaaak

#450
0aaaae
1aaaak

#455
0aaaak

#460
1aaaak

#465
0aaaak

#470
1aaaae
1aaaak

#475
0aaaak

#480
1aaaak

#485
0aaaak

#490
1aaaak

#495
0aaaak

#500
1aaaak

#505
0aaaak

#510
1aaaak

#515
0aaaak

#520
0aaaae
1aaaak

#525
0aaaak

#530
1aaaae
1aaaak

#535
0aaaak

#540
0aaaae
1aaaak

#545
0aaaak

#550
1aaaak

#555
0aaaak

#560
1aaaae
1aaaak

#565
0aaaak

#570
0aaaae
1aaaak

#575
0aaaak

#580
1aaaae
1aaaak

#585
0aaaak

#590
1aaaak

#595
0aaaak

#600
1aaaak

#605
0aaaak

#610
1aaaak

#615
0aaaak

#620
1aaaak

#625
0aaaak

#630
1aaaak

#635
0aaaak

#640
1aaaak

#645
0aaaak

#650
0aaaae
1aaaak

#655
0aaaak

#660
1aaaae
1aaaak

#665
0aaaak

#670
1aaaak

#675
0aaaak

#680
1aaaak

#685
0aaaak

#690
1aaaak

#695
0aaaak

#700
0aaaae
1aaaak

#705
0aaaak

#710
1aaaae
1aaaak

#715
0aaaak

#720
0aaaae
1aaaak

#725
0aaaak

#730
1aaaae
1aaaak

#735
0aaaak

#740
1aaaak

#745
0aaaak

#750
1aaaak

#755
0aaaak

#760
1aaaak

#765
0aaaak

#770
1aaaak

#775
0aaaak

#780
1aaaak

#785
0aaaak

#790
1aaaak

#795
0aaaak

#800
1aaaak

#805
0aaaak

#810
1aaaak

#815
0aaaak

#820
1aaaak

#825
0aaaak

#830
1aaaak

#835
0aaaak

#840
1aaaak

#845
0aaaak

#850
0aaaae
1aaaak

#855
0aaaak

#860
1aaaae
1aaaak

#865
0aaaak

#870
1aaaak

#875
0aaaak

#880
0aaaae
1aaaak

#885
0aaaak

#890
1aaaae
1aaaak

#895
0aaaak

#900
1aaaak

#905
0aaaak

#910
1aaaak

#915
0aaaak

#920
1aaaak

#925
0aaaak

#930
1aaaak

#935
0aaaak

#940
1aaaak

#945
0aaaak

#950
0aaaae
1aaaak

#955
0aaaak

#960
1aaaae
1aaaak

#965
0aaaak

#970
0aaaae
1aaaak

#975
0aaaak

#980
1aaaae
1aaaak

#985
0aaaak

#990
1aaaak

#995
0aaaak

#1000
1aaaak

#1005
0aaaak

#1010
1aaaak

#1015
0aaaak

#1020
0aaaae
1aaaak

#1025
0aaaak

#1030
1aaaae
1aaaak

